%YAML 1.1
%TAG !u! tag:unity3d.com,2011:
--- !u!114 &11400000
MonoBehaviour:
  m_ObjectHideFlags: 0
  m_CorrespondingSourceObject: {fileID: 0}
  m_PrefabInstance: {fileID: 0}
  m_PrefabAsset: {fileID: 0}
  m_GameObject: {fileID: 0}
  m_Enabled: 1
  m_EditorHideFlags: 0
  m_Script: {fileID: 11500000, guid: 1eed2e952a2c7c947a1200978b0ba99b, type: 3}
  m_Name: AnimationRotate2
  m_EditorClassIdentifier: 
  state: anim2
  AnimationList:
  - timing: 0
    type: 1
    globalCoordinate: 0
    duration: 3
    insertEnterTime: 0
    value: {x: 0, y: -200, z: 0}
  - timing: 0
    type: 0
    globalCoordinate: 0
    duration: 3
    insertEnterTime: 3
    value: {x: 0, y: 2, z: 0}
  - timing: 2
    type: 0
    globalCoordinate: 0
    duration: 3
    insertEnterTime: 6
    value: {x: 10, y: 0, z: 0}
