%YAML 1.1
%TAG !u! tag:unity3d.com,2011:
--- !u!114 &11400000
MonoBehaviour:
  m_ObjectHideFlags: 0
  m_CorrespondingSourceObject: {fileID: 0}
  m_PrefabInstance: {fileID: 0}
  m_PrefabAsset: {fileID: 0}
  m_GameObject: {fileID: 0}
  m_Enabled: 1
  m_EditorHideFlags: 0
  m_Script: {fileID: 11500000, guid: bf2edee5c58d82540a51f03df9d42094, type: 3}
  m_Name: URP-HighQuality
  m_EditorClassIdentifier: 
  k_AssetVersion: 5
  k_AssetPreviousVersion: 5
  m_RendererType: 1
  m_RendererData: {fileID: 0}
  m_RendererDataList:
  - {fileID: 11400000, guid: 9b9b56fbbfbca2045801da63fc8dd9a2, type: 2}
  - {fileID: 11400000, guid: 2c9a8ab179e43ba43902ae064aa22d4f, type: 2}
  - {fileID: 11400000, guid: dc567ad1ebd775143b8d353631b32422, type: 2}
  m_DefaultRendererIndex: 0
  m_RequireDepthTexture: 0
  m_RequireOpaqueTexture: 0
  m_OpaqueDownsampling: 1
  m_SupportsTerrainHoles: 1
  m_SupportsHDR: 1
  m_MSAA: 4
  m_RenderScale: 1
  m_MainLightRenderingMode: 1
  m_MainLightShadowsSupported: 1
  m_MainLightShadowmapResolution: 2048
  m_AdditionalLightsRenderingMode: 1
  m_AdditionalLightsPerObjectLimit: 4
  m_AdditionalLightShadowsSupported: 1
  m_AdditionalLightsShadowmapResolution: 1024
  m_ShadowDistance: 65
  m_ShadowCascades: 1
  m_Cascade2Split: 0.14147751
  m_Cascade4Split: {x: 0.099921785, y: 0.19999999, z: 0.467}
  m_ShadowDepthBias: 0.89
  m_ShadowNormalBias: 1
  m_SoftShadowsSupported: 1
  m_UseSRPBatcher: 0
  m_SupportsDynamicBatching: 1
  m_MixedLightingSupported: 1
  m_DebugLevel: 0
  m_PostProcessingFeatureSet: 0
  m_ColorGradingMode: 0
  m_ColorGradingLutSize: 32
  m_ShadowType: 2
  m_LocalShadowsSupported: 1
  m_LocalShadowsAtlasResolution: 1024
  m_MaxPixelLights: 4
  m_ShadowAtlasResolution: 1024
  m_ShaderVariantLogLevel: 0
