{
    "name": "UI",
    "rootNamespace": "",
    "references": [
        "GUID:cf414061cae3a954baf92763590f3127",
        "GUID:b8e24fd1eb19b4226afebb2810e3c19b",
        "GUID:002c1bbed08fa44d282ef34fd5edb138",
        "GUID:2066461eb7e86224ca598e335b3588c0",
        "GUID:3a2d222f953dde24794397ac6d7f4002",
        "GUID:ea8d37cdf6927b541b75463c2cf1fbd5",
        "GUID:6055be8ebefd69e48b49212b09b47b2f",
        "GUID:88b6a96a69c522e46b3504e12b7c9972",
        "GUID:907b3328f60158944b2faf1e1b0a7749",
        "GUID:3286a49761f075546948f5ee6bec83dc",
        "GUID:55b4f9781fb28b94d84e0c9766aefaac",
        "GUID:89c1699c8b346224782978d501c7f42a"
    ],
    "includePlatforms": [],
    "excludePlatforms": [],
    "allowUnsafeCode": false,
    "overrideReferences": false,
    "precompiledReferences": [],
    "autoReferenced": true,
    "defineConstraints": [],
    "versionDefines": [],
    "noEngineReferences": false
}