%YAML 1.1
%TAG !u! tag:unity3d.com,2011:
--- !u!114 &11400000
MonoBehaviour:
  m_ObjectHideFlags: 0
  m_CorrespondingSourceObject: {fileID: 0}
  m_PrefabInstance: {fileID: 0}
  m_PrefabAsset: {fileID: 0}
  m_GameObject: {fileID: 0}
  m_Enabled: 1
  m_EditorHideFlags: 0
  m_Script: {fileID: 11500000, guid: a9536b6488d9e024db1c753e8e90657e, type: 3}
  m_Name: VLBConfigOverride
  m_EditorClassIdentifier: 
  geometryOverrideLayer: 1
  geometryLayerID: 1
  geometryTag: Untagged
  geometryRenderQueue: 3000
  _RenderPipeline: 1
  _RenderingMode: 1
  ditheringFactor: 0
  sharedMeshSides: 24
  sharedMeshSegments: 5
  globalNoiseScale: 0.5
  globalNoiseVelocity: {x: 0.07, y: 0.18, z: 0.05}
  fadeOutCameraTag: MainCamera
  noise3DData: {fileID: 4900000, guid: 91ed995e34859c846bb4dea7d34e9292, type: 3}
  noise3DSize: 64
  dustParticlesPrefab: {fileID: 19822582, guid: 472bc216b0f362147943a3cedc36711f,
    type: 3}
  ditheringNoiseTexture: {fileID: 2800000, guid: 52f46dcaae8132a4090a9a8d14ece711,
    type: 3}
  featureEnabledColorGradient: 1
  featureEnabledDepthBlend: 1
  featureEnabledNoise3D: 1
  featureEnabledDynamicOcclusion: 1
  featureEnabledMeshSkewing: 1
  featureEnabledShaderAccuracyHigh: 1
  pluginVersion: 1940
  _DummyMaterial: {fileID: 2100000, guid: 5fd2e93a5c2d0b94b8f6b84696f7653f, type: 2}
  _BeamShader: {fileID: 4800000, guid: 5808924f420893e43b45f034a1df93da, type: 3}
