%YAML 1.1
%TAG !u! tag:unity3d.com,2011:
--- !u!114 &-824171919614149355
MonoBehaviour:
  m_ObjectHideFlags: 11
  m_CorrespondingSourceObject: {fileID: 0}
  m_PrefabInstance: {fileID: 0}
  m_PrefabAsset: {fileID: 0}
  m_GameObject: {fileID: 0}
  m_Enabled: 1
  m_EditorHideFlags: 0
  m_Script: {fileID: 11500000, guid: d0353a89b1f911e48b9e16bdc9f2e058, type: 3}
  m_Name: 
  m_EditorClassIdentifier: 
  version: 4
--- !u!21 &2100000
Material:
  serializedVersion: 6
  m_ObjectHideFlags: 0
  m_CorrespondingSourceObject: {fileID: 0}
  m_PrefabInstance: {fileID: 0}
  m_PrefabAsset: {fileID: 0}
  m_Name: bleibehaelter-bleibehaelter_02
  m_Shader: {fileID: 4800000, guid: 8d2bb70cbf9db8d4da26e15b26e74248, type: 3}
  m_ShaderKeywords: _GLOSSINESS_FROM_BASE_ALPHA _NORMALMAP _SPECULAR_COLOR
  m_LightmapFlags: 4
  m_EnableInstancingVariants: 0
  m_DoubleSidedGI: 0
  m_CustomRenderQueue: 2000
  stringTagMap:
    RenderType: Opaque
  disabledShaderPasses: []
  m_SavedProperties:
    serializedVersion: 3
    m_TexEnvs:
    - _BaseMap:
        m_Texture: {fileID: 2800000, guid: 27f9c559cb520444e8af9a9afbb01afb, type: 3}
        m_Scale: {x: 1, y: 1}
        m_Offset: {x: 0, y: 0}
    - _BumpMap:
        m_Texture: {fileID: 2800000, guid: 833e9bb22a7a21048a6ee1721aef0191, type: 3}
        m_Scale: {x: 1, y: 1}
        m_Offset: {x: 0, y: 0}
    - _Cube:
        m_Texture: {fileID: 8900000, guid: f87b0f9fe2f45bd47886594f19699865, type: 2}
        m_Scale: {x: 1, y: 1}
        m_Offset: {x: 0, y: 0}
    - _EmissionMap:
        m_Texture: {fileID: 0}
        m_Scale: {x: 1, y: 1}
        m_Offset: {x: 0, y: 0}
    - _MainTex:
        m_Texture: {fileID: 2800000, guid: 27f9c559cb520444e8af9a9afbb01afb, type: 3}
        m_Scale: {x: 1, y: 1}
        m_Offset: {x: 0, y: 0}
    - _SpecGlossMap:
        m_Texture: {fileID: 0}
        m_Scale: {x: 1, y: 1}
        m_Offset: {x: 0, y: 0}
    - unity_Lightmaps:
        m_Texture: {fileID: 0}
        m_Scale: {x: 1, y: 1}
        m_Offset: {x: 0, y: 0}
    - unity_LightmapsInd:
        m_Texture: {fileID: 0}
        m_Scale: {x: 1, y: 1}
        m_Offset: {x: 0, y: 0}
    - unity_ShadowMasks:
        m_Texture: {fileID: 0}
        m_Scale: {x: 1, y: 1}
        m_Offset: {x: 0, y: 0}
    m_Floats:
    - _AlphaClip: 0
    - _Blend: 0
    - _BumpScale: 1
    - _Cull: 2
    - _Cutoff: 0.5
    - _DstBlend: 0
    - _EdgeAlpha: 0
    - _FrezFalloff: 6.238806
    - _FrezPow: 1.5335821
    - _Gloss: 0.5
    - _GlossinessSource: 0
    - _Metalics: 0.42537314
    - _QueueOffset: 0
    - _ReceiveShadows: 1
    - _Reflection: 0.30597016
    - _Shininess: 0.26446092
    - _Smoothness: 0.26446092
    - _SmoothnessSource: 1
    - _SpecSource: 0
    - _SpecularHighlights: 0
    - _SrcBlend: 1
    - _Surface: 0
    - _ZWrite: 1
    m_Colors:
    - _BaseColor: {r: 0.71323526, g: 0.71323526, b: 0.71323526, a: 0.26446092}
    - _Color: {r: 0.71323526, g: 0.71323526, b: 0.71323526, a: 1}
    - _EmissionColor: {r: 0, g: 0, b: 0, a: 1}
    - _ReflectColor: {r: 0.33088237, g: 0.33088237, b: 0.33088237, a: 0.5019608}
    - _SpecColor: {r: 0.9626865, g: 0.9626865, b: 0.9626865, a: 1}
  m_BuildTextureStacks: []
